<svg width="2" height="20" viewBox="0 0 2 20" fill="none" xmlns="http://www.w3.org/2000/svg">
    <line x1="1" y1="1" x2="1" y2="19" stroke="#0D0D0D" stroke-opacity="0.3" stroke-width="2" stroke-linecap="round" stroke-dasharray="5 4"/>
</svg>
