{
  "project_info": {
    "project_number": "687346860300",
    "project_id": "isaac-692ef",
    "storage_bucket": "isaac-692ef.appspot.com"
  },
  "client": [
    {
      "client_info": {
        "mobilesdk_app_id": "1:687346860300:android:8951b89484f6e1c7a68929",
        "android_client_info": {
          "package_name": "com.isaaccar.service"
        }
      },
      "oauth_client": [
        {
          "client_id": "687346860300-37vtk7q36lcmkq6sh8io4nd4pv0aa8oq.apps.googleusercontent.com",
          "client_type": 3
        }
      ],
      "api_key": [
        {
          "current_key": "AIzaSyAdNbqS4GoTGqxOAoc4_SXyHv2FrTszHVs"
        }
      ],
      "services": {
        "appinvite_service": {
          "other_platform_oauth_client": [
            {
              "client_id": "687346860300-37vtk7q36lcmkq6sh8io4nd4pv0aa8oq.apps.googleusercontent.com",
              "client_type": 3
            }
          ]
        }
      }
    },
    {
      "client_info": {
        "mobilesdk_app_id": "1:687346860300:android:d698bebcddee1e2ea68929",
        "android_client_info": {
          "package_name": "uz.gigalab.car_service_driver.driver"
        }
      },
      "oauth_client": [
        {
          "client_id": "687346860300-37vtk7q36lcmkq6sh8io4nd4pv0aa8oq.apps.googleusercontent.com",
          "client_type": 3
        }
      ],
      "api_key": [
        {
          "current_key": "AIzaSyAdNbqS4GoTGqxOAoc4_SXyHv2FrTszHVs"
        }
      ],
      "services": {
        "appinvite_service": {
          "other_platform_oauth_client": [
            {
              "client_id": "687346860300-37vtk7q36lcmkq6sh8io4nd4pv0aa8oq.apps.googleusercontent.com",
              "client_type": 3
            }
          ]
        }
      }
    }
  ],
  "configuration_version": "1"
}